,abstract_bert_cosine_sim,abstract_doc2vec_cosine_sim,basic_ipc_sim5,ipc_bert_cosine_sim,title_bert_cosine_sim,title_doc2vec_cosine_sim,x_citation_1_hop_sim
abstract_bert_cosine_sim,0.9680127974405118,0.11803593653786221,0.12841423987812595,0.13420113904562067,0.15808061960483352,0.04285842138986648,0.19092454003298717
abstract_doc2vec_cosine_sim,0.11408190666580108,1.0,0.08107378840526501,0.08072250447832029,0.07410643900563925,0.04672506571782778,0.1495008673826941
basic_ipc_sim5,0.12048350449805996,0.06447757844026407,0.8867572693420948,0.58053134354859,0.11261674103198481,0.02605408143952698,0.23241508033814998
ipc_bert_cosine_sim,0.13236246814537087,0.07178435027760756,0.5844102921375308,0.9234589487297347,0.1164783963195509,0.029908576897019336,0.21317569322144136
title_bert_cosine_sim,0.14580659915914645,0.07429823711043583,0.11957029133854118,0.11416455288392989,0.9986666666666667,0.0651438271168742,0.15436749947309397
title_doc2vec_cosine_sim,0.03763147272197494,0.0457778358784865,0.03647198389814484,0.035068205791102536,0.064529044390798,1.0,0.0450115459233288
x_citation_1_hop_sim,0.223490523296235,0.16822499959714995,0.3041550212230848,0.2718824857404104,0.18245900194641912,0.04859160142565605,0.8850476190476195
