,abstract_bert_cosine_sim,abstract_doc2vec_cosine_sim,basic_ipc_sim5,ipc_bert_cosine_sim,title_bert_cosine_sim,title_doc2vec_cosine_sim,x_citation_1_hop_sim
abstract_bert_cosine_sim,0.9973337332933373,0.10196261450568375,0.09784839425428304,0.09710643641258834,0.1359526660588522,0.021833278752242495,0.15709769386379047
abstract_doc2vec_cosine_sim,0.10310863039631887,1.0,0.07933647084296105,0.06454249682455812,0.07699117777922679,0.0372411826761187,0.14736635989096827
basic_ipc_sim5,0.08567353988640342,0.06259677099121724,0.84566180161129,0.5023418447827483,0.08730096449857734,0.017255904512171297,0.17003907467732002
ipc_bert_cosine_sim,0.08808155052252328,0.05056062071724857,0.5084579924751126,0.8997916668300208,0.08805402898343581,0.01758090285403112,0.15487393194139348
title_bert_cosine_sim,0.13184813875382506,0.07726095289636238,0.1025205199414159,0.09952298099449969,0.9941333333333333,0.058160070599273375,0.14196716009044466
title_doc2vec_cosine_sim,0.016961918617719153,0.028182425441265684,0.017874610465624455,0.01825990361265047,0.05104281711302447,1.0,0.028860619479662276
x_citation_1_hop_sim,0.18475367518000374,0.15889119640587332,0.2426808131942551,0.21624832885750198,0.1559613746491285,0.0439319137982118,0.8885047619047629
