,abstract_bert_cosine_sim,abstract_doc2vec_cosine_sim,basic_ipc_sim5,ipc_bert_cosine_sim,title_bert_cosine_sim,title_doc2vec_cosine_sim,x_citation_1_hop_sim
abstract_bert_cosine_sim,0.9996666666666666,0.24547165062840604,0.31660067771407097,0.30506677649380814,0.33065617107308154,0.08420073203968576,0.38654192494852746
abstract_doc2vec_cosine_sim,0.24823532267476264,1.0,0.2159123091482055,0.20467710891552385,0.17817713591465187,0.09280492207729504,0.2661157530786167
basic_ipc_sim5,0.31813067193386535,0.21333370607202978,0.9355101953601938,0.6684415077378687,0.26830678542538444,0.07188922520716623,0.4502808833796639
ipc_bert_cosine_sim,0.30828958463302436,0.20313115498293774,0.6828640547944798,0.9657544910179634,0.26665029390656125,0.0792818088730641,0.4202921627978008
title_bert_cosine_sim,0.3292271254086908,0.1802818577812352,0.27010280728365255,0.2674929952538679,0.9993333333333333,0.1127519289679382,0.31868178621207777
title_doc2vec_cosine_sim,0.08487003416248742,0.0877656593484346,0.07615875781361973,0.08202481713499732,0.11155489378969798,1.0,0.08350787106749484
x_citation_1_hop_sim,0.4432728351340187,0.2963057229762515,0.5138964714606887,0.47667212031838824,0.35690468840991135,0.09343635181201553,0.879285714285711
